Library/Bee/artifacts/mvdfrm/Unity.2D.Animation.Editor.ref.dll_AC471A120856CE35.mvfrm
Library/Bee/artifacts/mvdfrm/Unity.2D.Common.Editor.ref.dll_C9AFC0EDC556EDD8.mvfrm
Library/Bee/artifacts/mvdfrm/Unity.2D.Common.Runtime.ref.dll_42D85E2227B6C2D3.mvfrm
Library/Bee/artifacts/mvdfrm/Unity.2D.IK.Runtime.ref.dll_B4FA537E43BB692A.mvfrm
Library/Bee/artifacts/mvdfrm/Unity.InternalAPIEditorBridge.001.ref.dll_C0BD7C054244FC28.mvfrm
Library/Bee/artifacts/mvdfrm/Unity.InternalAPIEngineBridge.001.ref.dll_B33834AFA753E36D.mvfrm
Library/Bee/artifacts/mvdfrm/UnityEditor.TestRunner.ref.dll_2594DFF003AE8269.mvfrm
Library/Bee/artifacts/mvdfrm/UnityEditor.UI.ref.dll_452FB8EBD860BCAB.mvfrm
Library/Bee/artifacts/mvdfrm/UnityEngine.TestRunner.ref.dll_F1B32A9E2F71E054.mvfrm
Library/Bee/artifacts/mvdfrm/UnityEngine.UI.ref.dll_01958F46DE82E516.mvfrm
Library/Bee/artifacts/mvdfrm/UnityEditor.Graphs.dll_9D29CACA7A4CAB16.mvfrm
Library/Bee/artifacts/mvdfrm/UnityEditor.CoreModule.dll_457982CF38E404E4.mvfrm
Library/Bee/artifacts/mvdfrm/UnityEditor.DeviceSimulatorModule.dll_04B7AF377BFD1A1D.mvfrm
Library/Bee/artifacts/mvdfrm/UnityEditor.DiagnosticsModule.dll_5E2792FC6361FD2B.mvfrm
Library/Bee/artifacts/mvdfrm/UnityEditor.EditorToolbarModule.dll_3DFCA916EF29A64D.mvfrm
Library/Bee/artifacts/mvdfrm/UnityEditor.GraphViewModule.dll_16921CD0C88EA9A2.mvfrm
Library/Bee/artifacts/mvdfrm/UnityEditor.PresetsUIModule.dll_D1F855B2CAE701A7.mvfrm
Library/Bee/artifacts/mvdfrm/UnityEditor.QuickSearchModule.dll_E9371409BC38F984.mvfrm
Library/Bee/artifacts/mvdfrm/UnityEditor.SceneTemplateModule.dll_619C19D4EE165085.mvfrm
Library/Bee/artifacts/mvdfrm/UnityEditor.SceneViewModule.dll_5541FFD8BDB176B0.mvfrm
Library/Bee/artifacts/mvdfrm/UnityEditor.TextCoreFontEngineModule.dll_18900B36DC3A05E2.mvfrm
Library/Bee/artifacts/mvdfrm/UnityEditor.TextCoreTextEngineModule.dll_607841A86BBDBF00.mvfrm
Library/Bee/artifacts/mvdfrm/UnityEditor.UIBuilderModule.dll_6B1AC9ED3B4722D6.mvfrm
Library/Bee/artifacts/mvdfrm/UnityEditor.UIElementsModule.dll_AED05807342ED1A0.mvfrm
Library/Bee/artifacts/mvdfrm/UnityEditor.UIElementsSamplesModule.dll_CA09778270B349CD.mvfrm
Library/Bee/artifacts/mvdfrm/UnityEditor.UnityConnectModule.dll_488674158DE7259A.mvfrm
Library/Bee/artifacts/mvdfrm/UnityEditor.dll_6B1F609B58980F71.mvfrm
Library/Bee/artifacts/mvdfrm/UnityEngine.AIModule.dll_6E649C93D4581EB8.mvfrm
Library/Bee/artifacts/mvdfrm/UnityEngine.ARModule.dll_27D7619731757D81.mvfrm
Library/Bee/artifacts/mvdfrm/UnityEngine.AccessibilityModule.dll_9441856BEE8C7822.mvfrm
Library/Bee/artifacts/mvdfrm/UnityEngine.AndroidJNIModule.dll_2D1940DA7D4E4076.mvfrm
Library/Bee/artifacts/mvdfrm/UnityEngine.AnimationModule.dll_E51798F9A2EB7E48.mvfrm
Library/Bee/artifacts/mvdfrm/UnityEngine.AssetBundleModule.dll_2D2046FB1E9FAE76.mvfrm
Library/Bee/artifacts/mvdfrm/UnityEngine.AudioModule.dll_59402DDAE0100D3A.mvfrm
Library/Bee/artifacts/mvdfrm/UnityEngine.ClothModule.dll_C0288AD5BA2CEC1E.mvfrm
Library/Bee/artifacts/mvdfrm/UnityEngine.ClusterInputModule.dll_C822E92B3F6EF860.mvfrm
Library/Bee/artifacts/mvdfrm/UnityEngine.ClusterRendererModule.dll_0A6471A8EBB827A1.mvfrm
Library/Bee/artifacts/mvdfrm/UnityEngine.ContentLoadModule.dll_C636A03BED225663.mvfrm
Library/Bee/artifacts/mvdfrm/UnityEngine.CoreModule.dll_689A5621E0E9700F.mvfrm
Library/Bee/artifacts/mvdfrm/UnityEngine.CrashReportingModule.dll_920B5D3B50452307.mvfrm
Library/Bee/artifacts/mvdfrm/UnityEngine.DSPGraphModule.dll_EC967630B1FA9B0D.mvfrm
Library/Bee/artifacts/mvdfrm/UnityEngine.DirectorModule.dll_E74514C73F99C9EC.mvfrm
Library/Bee/artifacts/mvdfrm/UnityEngine.GIModule.dll_06A0E5A1700706D2.mvfrm
Library/Bee/artifacts/mvdfrm/UnityEngine.GameCenterModule.dll_57668AF5438F3167.mvfrm
Library/Bee/artifacts/mvdfrm/UnityEngine.GridModule.dll_460B720FF93E0606.mvfrm
Library/Bee/artifacts/mvdfrm/UnityEngine.HotReloadModule.dll_666056FF7E1E99CA.mvfrm
Library/Bee/artifacts/mvdfrm/UnityEngine.IMGUIModule.dll_919FCD41A641A11B.mvfrm
Library/Bee/artifacts/mvdfrm/UnityEngine.ImageConversionModule.dll_76566F596DDCDF95.mvfrm
Library/Bee/artifacts/mvdfrm/UnityEngine.InputLegacyModule.dll_BE656219B6916467.mvfrm
Library/Bee/artifacts/mvdfrm/UnityEngine.InputModule.dll_BFB5F58B564831DE.mvfrm
Library/Bee/artifacts/mvdfrm/UnityEngine.JSONSerializeModule.dll_F4590EA7EDC7D8AC.mvfrm
Library/Bee/artifacts/mvdfrm/UnityEngine.LocalizationModule.dll_066FB37DD6EAEB59.mvfrm
Library/Bee/artifacts/mvdfrm/UnityEngine.NVIDIAModule.dll_EFE254C593E4CC5B.mvfrm
Library/Bee/artifacts/mvdfrm/UnityEngine.ParticleSystemModule.dll_E51DA687BE56AE95.mvfrm
Library/Bee/artifacts/mvdfrm/UnityEngine.PerformanceReportingModule.dll_9A4C41E34C46D3CE.mvfrm
Library/Bee/artifacts/mvdfrm/UnityEngine.Physics2DModule.dll_31BD88EA43E875DD.mvfrm
Library/Bee/artifacts/mvdfrm/UnityEngine.PhysicsModule.dll_9997CBEB71D1034B.mvfrm
Library/Bee/artifacts/mvdfrm/UnityEngine.ProfilerModule.dll_198B4DFDD8F350F9.mvfrm
Library/Bee/artifacts/mvdfrm/UnityEngine.PropertiesModule.dll_84A1CA33B67A95A3.mvfrm
Library/Bee/artifacts/mvdfrm/UnityEngine.RuntimeInitializeOnLoadManagerInitializerModule.dll_89DF4EE3D72120A6.mvfrm
Library/Bee/artifacts/mvdfrm/UnityEngine.ScreenCaptureModule.dll_0E40BC2D0234050E.mvfrm
Library/Bee/artifacts/mvdfrm/UnityEngine.SharedInternalsModule.dll_FA67AE2EE50ADAE5.mvfrm
Library/Bee/artifacts/mvdfrm/UnityEngine.SpriteMaskModule.dll_4092FD8564FEC6E1.mvfrm
Library/Bee/artifacts/mvdfrm/UnityEngine.SpriteShapeModule.dll_46817455D441E680.mvfrm
Library/Bee/artifacts/mvdfrm/UnityEngine.StreamingModule.dll_99AC8649F2733586.mvfrm
Library/Bee/artifacts/mvdfrm/UnityEngine.SubstanceModule.dll_76579A933DC63394.mvfrm
Library/Bee/artifacts/mvdfrm/UnityEngine.SubsystemsModule.dll_AB4063E73346AEF4.mvfrm
Library/Bee/artifacts/mvdfrm/UnityEngine.TLSModule.dll_B634735E4C95095F.mvfrm
Library/Bee/artifacts/mvdfrm/UnityEngine.TerrainModule.dll_B3DE475A478F4C39.mvfrm
Library/Bee/artifacts/mvdfrm/UnityEngine.TerrainPhysicsModule.dll_E5984F5AD799A922.mvfrm
Library/Bee/artifacts/mvdfrm/UnityEngine.TextCoreFontEngineModule.dll_96EF8689EF37C4AD.mvfrm
Library/Bee/artifacts/mvdfrm/UnityEngine.TextCoreTextEngineModule.dll_DED7BCFB7EBB7DCB.mvfrm
Library/Bee/artifacts/mvdfrm/UnityEngine.TextRenderingModule.dll_37802E37B96B8503.mvfrm
Library/Bee/artifacts/mvdfrm/UnityEngine.TilemapModule.dll_52DAAEDB5F4C2D42.mvfrm
Library/Bee/artifacts/mvdfrm/UnityEngine.UIElementsModule.dll_AF7EC54F3672EAEB.mvfrm
Library/Bee/artifacts/mvdfrm/UnityEngine.UIModule.dll_69D83AC1309F2464.mvfrm
Library/Bee/artifacts/mvdfrm/UnityEngine.UmbraModule.dll_D414D9F36D36B8AD.mvfrm
Library/Bee/artifacts/mvdfrm/UnityEngine.UnityAnalyticsCommonModule.dll_358AFF27662F722C.mvfrm
Library/Bee/artifacts/mvdfrm/UnityEngine.UnityAnalyticsModule.dll_04BD17516A7E0091.mvfrm
Library/Bee/artifacts/mvdfrm/UnityEngine.UnityConnectModule.dll_35E5F824886F2645.mvfrm
Library/Bee/artifacts/mvdfrm/UnityEngine.UnityCurlModule.dll_18343A2B12FF7035.mvfrm
Library/Bee/artifacts/mvdfrm/UnityEngine.UnityTestProtocolModule.dll_85CC2D74CAAE9F23.mvfrm
Library/Bee/artifacts/mvdfrm/UnityEngine.UnityWebRequestAssetBundleModule.dll_23829200FF96A822.mvfrm
Library/Bee/artifacts/mvdfrm/UnityEngine.UnityWebRequestAudioModule.dll_124895C1D2B19E66.mvfrm
Library/Bee/artifacts/mvdfrm/UnityEngine.UnityWebRequestModule.dll_87F5770378D17A14.mvfrm
Library/Bee/artifacts/mvdfrm/UnityEngine.UnityWebRequestTextureModule.dll_509341E600BA9CFB.mvfrm
Library/Bee/artifacts/mvdfrm/UnityEngine.UnityWebRequestWWWModule.dll_A99A02576E7B3A37.mvfrm
Library/Bee/artifacts/mvdfrm/UnityEngine.VFXModule.dll_37130BCD230272CC.mvfrm
Library/Bee/artifacts/mvdfrm/UnityEngine.VRModule.dll_BCAA6146D259A9DC.mvfrm
Library/Bee/artifacts/mvdfrm/UnityEngine.VehiclesModule.dll_5F080E46B9C39987.mvfrm
Library/Bee/artifacts/mvdfrm/UnityEngine.VideoModule.dll_7E49B245A2A228DF.mvfrm
Library/Bee/artifacts/mvdfrm/UnityEngine.VirtualTexturingModule.dll_9262D80725BB2DED.mvfrm
Library/Bee/artifacts/mvdfrm/UnityEngine.WindModule.dll_DEE9314A721FEE78.mvfrm
Library/Bee/artifacts/mvdfrm/UnityEngine.XRModule.dll_EF69244B5B93F73A.mvfrm
Library/Bee/artifacts/mvdfrm/UnityEngine.dll_9DC3A773B70B9C56.mvfrm
Library/Bee/artifacts/mvdfrm/UnityEditor.LinuxStandalone.Extensions.dll_A5F6D6E12104A92C.mvfrm
Library/Bee/artifacts/mvdfrm/UnityEditor.WebGL.Extensions.dll_E325B36D6B8F420C.mvfrm
Library/Bee/artifacts/mvdfrm/Unity.Plastic.Antlr3.Runtime.dll_56AFA6E27C7D5F59.mvfrm
Library/Bee/artifacts/mvdfrm/Unity.Plastic.Newtonsoft.Json.dll_C9C18B6F155787CC.mvfrm
Library/Bee/artifacts/mvdfrm/Unity.Collections.LowLevel.ILSupport.dll_2E40CE80E145E521.mvfrm
Library/Bee/artifacts/mvdfrm/Unity.VisualScripting.IonicZip.dll_3753AE2E22DD17B6.mvfrm
Library/Bee/artifacts/mvdfrm/Unity.VisualScripting.YamlDotNet.dll_B9EB2E0105A28BA6.mvfrm
Library/Bee/artifacts/mvdfrm/Unity.VisualScripting.TextureAssets.dll_51095754C66FE99E.mvfrm
Library/Bee/artifacts/mvdfrm/Unity.VisualScripting.Antlr3.Runtime.dll_6B5854E2366B9BC5.mvfrm